[
  {
    "outputFileName": "wwwroot/js/site.js",
    "inputFiles": [
      "wwwroot/lib/jquery/dist/jquery.min.js",
      "wwwroot/lib/bootstrap-431-dist/js/bootstrap.min.js",
      "wwwroot/js/common.js",
      "wwwroot/js/pages/home.js",
      "wwwroot/js/pages/Cart.js",
      "wwwroot/js/pages/ProductList.js",
      "wwwroot/js/pages/ProductDetails.js",
      "wwwroot/js/pages/Checkout.js",
      "wwwroot/js/pages/CheckoutCart.js",
      "wwwroot/js/pages/CheckoutAddress.js",
      "wwwroot/js/pages/CheckoutPayment.js",
      "wwwroot/js/pages/NewsLetter.js"
    ],
    "minify": {
      "enabled": true,
      "renameLocals": true
    },
    "sourceMap": false
  },
  {
    "outputFileName": "wwwroot/css/all.css",
    "inputFiles": [
      "wwwroot/lib/bootstrap-431-dist/css/custom-bootstrap.min.css",
      "wwwroot/css/site.css"
    ]

  }
]
